<svg width="24" height="24" viewBox="0 0 24 24" fill="none" xmlns="http://www.w3.org/2000/svg">
<path d="M18.5655 24C18.6685 24 23.329 23.999 23.227 23.999C23.6411 23.999 23.9772 23.663 23.9772 23.249C23.6271 15.392 25.8198 7.101 17.6372 7.101C16.0637 7.101 14.8103 7.638 13.907 8.348C13.907 6.887 12.3275 7.695 8.68131 7.478C8.26717 7.478 7.93106 7.814 7.93106 8.228C8.23316 22.394 7.25685 23.999 8.68131 23.999H13.3428C14.6962 23.999 13.835 22.091 14.0931 15.811C14.0931 13.217 14.8433 12.709 16.1397 12.709C17.5742 12.709 17.8153 13.705 17.8153 15.937C18.0723 22.104 17.2171 24 18.5655 24ZM16.1397 11.209C11.6473 11.209 12.5926 16.147 12.5926 22.499H9.43155V8.978H12.4065V10.276C12.4065 10.996 13.5039 11.35 13.886 10.626C14.3781 9.692 15.6566 8.601 17.6372 8.601C21.1653 8.601 22.4768 10.334 22.4768 14.997V22.5H19.3157C19.3157 15.356 20.072 11.209 16.1397 11.209Z" fill="black"/>
<path d="M1.09186 7.479C-0.328598 7.479 0.643716 9.064 0.341618 23.25C0.341618 23.664 0.677727 24 1.09186 24H5.75836C7.17882 24 6.20651 22.415 6.50861 8.229C6.50861 6.934 4.627 7.698 1.09186 7.479ZM5.00812 22.5H1.8421V8.979H5.00812V22.5Z" fill="black"/>
<path d="M3.42261 0C-1.15486 0 -1.12686 6.929 3.42261 6.929C7.96908 6.929 8.00509 0 3.42261 0ZM3.42261 5.429C0.853783 5.429 0.829775 1.5 3.42261 1.5C6.02045 1.5 5.98744 5.429 3.42261 5.429Z" fill="black"/>
</svg>
