<svg width="61" height="74" viewBox="0 0 61 74" fill="none" xmlns="http://www.w3.org/2000/svg">
<path d="M58.516 8.81632H46.8128V2.16795C46.8128 0.970496 45.765 0 44.4721 0H16.3845C15.0916 0 14.0438 0.970496 14.0438 2.16795V8.81632H2.34064C1.0478 8.81632 0 9.78682 0 10.9843V71.8314C0 73.0288 1.0478 73.9993 2.34064 73.9993H58.516C59.8088 73.9993 60.8566 73.0288 60.8566 71.8314V10.9843C60.8566 9.78682 59.8088 8.81632 58.516 8.81632ZM18.7251 4.3359H42.1315V8.50041V8.81632H18.7251V8.50014V4.3359ZM56.1753 69.6634H4.68128V13.1522H56.1753V69.6634Z" fill="#040211"/>
<path d="M40.4766 27.6927C42.1315 29.2255 42.1062 29.2032 42.1062 29.2032C42.1062 29.2032 42.1315 29.2255 43.7864 27.6927C45.2319 26.3539 45.3414 26.0623 45.346 26.0099C45.3463 26.0067 45.346 26.0028 45.346 26.0028C45.3456 26.0006 45.3451 25.9998 45.3451 25.9998C45.3451 25.9998 45.4847 26.129 45.346 26.0099C45.2119 25.8948 44.8178 25.5475 43.7864 24.6271L36.7651 18.1232C35.8581 17.2832 34.3726 17.273 33.4541 18.1232L26.4328 24.6271C24.8319 26.1099 24.8319 25.9998 24.8319 25.9998C24.8319 25.9998 24.8319 26.2099 26.4328 27.6927C28.0337 29.1755 28.0708 29.2032 28.0708 29.2032C28.0708 29.2032 28.0708 29.2411 29.7426 27.6927L32.7689 24.8902V41.3355C32.7689 47.6158 28.6241 53.1627 22.4659 55.4334C21.2504 53.4879 18.9805 52.1753 16.3845 52.1753C12.5127 52.1753 9.36256 55.093 9.36256 58.6791C9.36256 62.2653 12.5127 65.183 16.3845 65.183C19.8552 65.183 22.7438 62.8383 23.3058 59.7699C31.7169 57.0706 37.4502 49.7098 37.4502 41.3355V24.8902L40.4766 27.6927ZM16.3845 60.8471C15.0941 60.8471 14.0438 59.8743 14.0438 58.6791C14.0438 57.4839 15.0941 56.5112 16.3845 56.5112C17.6749 56.5112 18.7251 57.4839 18.7251 58.6791C18.7251 59.8743 17.6749 60.8471 16.3845 60.8471Z" fill="#040211"/>
<path d="M41.4458 52.8104C40.5321 51.9636 39.0497 51.9636 38.136 52.8104C37.2216 53.6573 37.2216 55.0298 38.136 55.876L41.1617 58.6791L38.136 61.4822C37.2216 62.3291 37.2216 63.7015 38.136 64.5478C39.0497 65.3947 40.5321 65.3947 41.4458 64.5478L44.4721 61.7453L47.4985 64.5478C48.4122 65.3947 49.8946 65.3947 50.8083 64.5478C51.7226 63.7015 51.7226 62.3291 50.8083 61.4822L47.7826 58.6791L50.8083 55.876C51.7226 55.0292 51.7226 53.6567 50.8083 52.8104C49.8946 51.9636 48.4128 51.9636 47.4985 52.8104L44.4721 55.613L41.4458 52.8104Z" fill="#040211"/>
<path d="M10.0483 47.2043C10.962 48.0511 12.4444 48.0511 13.3581 47.2043L16.3845 44.4017L19.4108 47.2043C20.3245 48.0511 21.807 48.0511 22.7207 47.2043C23.635 46.358 23.635 44.9855 22.7207 44.1386L19.6949 41.3355L22.7207 38.5325C23.635 37.6856 23.635 36.3131 22.7207 35.4668C21.807 34.62 20.3252 34.62 19.4108 35.4668L16.3845 38.2694L13.3581 35.4668C12.4444 34.62 10.962 34.62 10.0483 35.4668C9.13398 36.3131 9.13398 37.6856 10.0483 38.5325L13.0741 41.3355L10.0483 44.1386C9.13398 44.9849 9.13398 46.358 10.0483 47.2043Z" fill="#040211"/>
<path fill-rule="evenodd" clip-rule="evenodd" d="M46.9646 0.000128765L14.0354 0V11.9999H46.9646V0.000128765ZM42.1315 8.50041L18.7251 8.50014V4.3359H42.1315V8.50041Z" fill="#040211"/>
<path fill-rule="evenodd" clip-rule="evenodd" d="M42.1315 8.50041L61 8.50062V74H0V8.49992L18.7251 8.50014L42.1315 8.50041ZM56.1753 69.6634H4.68128V13.1522H56.1753V69.6634ZM42.1062 29.2032C42.1062 29.2032 42.1315 29.2255 40.4766 27.6927L37.4502 24.8902V41.3355C37.4502 49.7098 31.7169 57.0706 23.3058 59.7699C22.7438 62.8383 19.8552 65.183 16.3845 65.183C12.5127 65.183 9.36256 62.2653 9.36256 58.6791C9.36256 55.093 12.5127 52.1753 16.3845 52.1753C18.9805 52.1753 21.2504 53.4879 22.4659 55.4334C28.6241 53.1627 32.7689 47.6158 32.7689 41.3355V24.8902L29.7426 27.6927C28.0708 29.2411 28.0708 29.2032 28.0708 29.2032C28.0708 29.2032 28.0337 29.1755 26.4328 27.6927C24.8319 26.2099 24.8319 25.9998 24.8319 25.9998C24.8319 25.9998 24.8319 26.1099 26.4328 24.6271L33.4541 18.1232C34.3726 17.273 35.8581 17.2832 36.7651 18.1232L43.7864 24.6271C44.8178 25.5475 45.2119 25.8948 45.346 26.0099C45.3414 26.0623 45.2319 26.3539 43.7864 27.6927C42.1315 29.2255 42.1062 29.2032 42.1062 29.2032ZM45.346 26.0099C45.3463 26.0067 45.346 26.0028 45.346 26.0028C45.3456 26.0006 45.3451 25.9998 45.3451 25.9998C45.3451 25.9998 45.4847 26.129 45.346 26.0099ZM38.136 52.8104C39.0497 51.9636 40.5321 51.9636 41.4458 52.8104L44.4721 55.613L47.4985 52.8104C48.4128 51.9636 49.8946 51.9636 50.8083 52.8104C51.7226 53.6567 51.7226 55.0292 50.8083 55.876L47.7826 58.6791L50.8083 61.4822C51.7226 62.3291 51.7226 63.7015 50.8083 64.5478C49.8946 65.3947 48.4122 65.3947 47.4985 64.5478L44.4721 61.7453L41.4458 64.5478C40.5321 65.3947 39.0497 65.3947 38.136 64.5478C37.2216 63.7015 37.2216 62.3291 38.136 61.4822L41.1617 58.6791L38.136 55.876C37.2216 55.0298 37.2216 53.6573 38.136 52.8104ZM13.3581 47.2043C12.4444 48.0511 10.962 48.0511 10.0483 47.2043C9.13398 46.358 9.13398 44.9849 10.0483 44.1386L13.0741 41.3355L10.0483 38.5325C9.13398 37.6856 9.13398 36.3131 10.0483 35.4668C10.962 34.62 12.4444 34.62 13.3581 35.4668L16.3845 38.2694L19.4108 35.4668C20.3252 34.62 21.807 34.62 22.7207 35.4668C23.635 36.3131 23.635 37.6856 22.7207 38.5325L19.6949 41.3355L22.7207 44.1386C23.635 44.9855 23.635 46.358 22.7207 47.2043C21.807 48.0511 20.3245 48.0511 19.4108 47.2043L16.3845 44.4017L13.3581 47.2043ZM14.0438 58.6791C14.0438 59.8743 15.0941 60.8471 16.3845 60.8471C17.6749 60.8471 18.7251 59.8743 18.7251 58.6791C18.7251 57.4839 17.6749 56.5112 16.3845 56.5112C15.0941 56.5112 14.0438 57.4839 14.0438 58.6791Z" fill="#040211"/>
</svg>
