<svg width="83" height="77" viewBox="0 0 83 77" fill="none" xmlns="http://www.w3.org/2000/svg">
<path d="M79.8041 0.14624H2.52012C0.0810753 0.14624 0.0810547 0.146279 0.0810547 2.57811V73.6568C0.0810547 74.9993 1.17302 76.0881 2.52012 76.0881H79.8041C81.1512 76.0881 82.2432 74.9993 82.2432 73.6568V2.57811C82.2432 1.23499 81.1512 0.14624 79.8041 0.14624ZM4.95855 5.00936H77.3657V14.9456H4.95855V5.00936ZM77.3657 71.225H4.95855V19.8087H77.3657V71.225Z" fill="#040211"/>
<path d="M72.2293 7.54624C70.9537 7.54624 69.7313 8.66436 69.7903 9.97748C69.8492 11.295 70.8622 12.4094 72.2293 12.4094C73.505 12.4094 74.7267 11.2906 74.6677 9.97748C74.6088 8.65999 73.5965 7.54624 72.2293 7.54624Z" fill="#040211"/>
<path d="M64.5717 7.54624C63.2961 7.54624 62.0738 8.66436 62.1327 9.97748C62.1922 11.295 63.2046 12.4094 64.5717 12.4094C65.8474 12.4094 67.0697 11.2906 67.0108 9.97748C66.9513 8.65999 65.9389 7.54624 64.5717 7.54624Z" fill="#040211"/>
<path d="M56.9142 7.54624C55.6385 7.54624 54.4168 8.66436 54.4757 9.97748C54.5347 11.295 55.547 12.4094 56.9142 12.4094C58.1898 12.4094 59.4122 11.2906 59.3532 9.97748C59.2943 8.65999 58.282 7.54624 56.9142 7.54624Z" fill="#040211"/>
<path d="M0.0810743 0.146279H2.64864V3.02628H0.0810743V0.146279Z" fill="#040211"/>
<path d="M79.6757 0.146279H82.2432V3.02628H79.6757V0.146279Z" fill="#040211"/>
<path d="M79.6757 73.2662H82.2432V76.1462H79.6757V73.2662Z" fill="#040211"/>
<path d="M0.0810547 73.2662H82.2432V76.1462H0.0810547V73.2662Z" fill="#040211"/>
<path d="M48.6878 33.7283L43.9203 31.8263L33.6473 57.4234L38.4148 59.3254L48.6878 33.7283Z" fill="#040211"/>
<path d="M55.825 57.6089L66.0953 47.3689C67.0909 46.3703 67.0909 44.7579 66.0953 43.7593L55.825 33.5193L52.2048 37.1289L60.6521 45.5513L52.2048 53.9737L55.825 57.6089Z" fill="#040211"/>
<path d="M65.8617 43.5257L67.9127 45.5707L65.8617 47.6157L63.8107 45.5707L65.8617 43.5257Z" fill="#040211"/>
<path d="M26.4508 33.5193L16.1806 43.7593C15.185 44.7579 15.185 46.3704 16.1806 47.3689L26.4508 57.6089L30.0711 53.9993L21.6238 45.5769L30.0711 37.1545L26.4508 33.5193Z" fill="#040211"/>
<path d="M16.4142 47.6025L14.3632 45.5575L16.4142 43.5125L18.4652 45.5575L16.4142 47.6025Z" fill="#040211"/>
</svg>
