<svg width="74" height="74" viewBox="0 0 74 74" fill="none" xmlns="http://www.w3.org/2000/svg">
<path d="M21.2263 11.1797L18.1601 8.11407L13.42 12.8542L11.3976 10.8314L8.33144 13.8976L13.42 18.9855L21.2263 11.1797Z" fill="black"/>
<path d="M74 27.4609V0H46.5391V11.5625H27.4609V0H0V27.4609H24.3947L46.5391 49.6053V58.1016H27.4609V46.5391H0V74H27.4609V62.4375H46.5391V74H74V46.5391H49.6053L27.4609 24.3947V15.8984H46.5391V27.4609H74ZM50.875 4.33594H69.6641V23.125H50.875V4.33594ZM23.125 23.125H4.33594V4.33594H23.125V23.125ZM23.125 69.6641H4.33594V50.875H23.125V69.6641ZM50.875 50.875H69.6641V69.6641H50.875V50.875Z" fill="black"/>
<path d="M21.2263 57.7188L18.1601 54.6531L13.42 59.3933L11.3976 57.3704L8.33144 60.4366L13.42 65.5246L21.2263 57.7188Z" fill="black"/>
<path d="M59.959 59.3933L57.9367 57.3704L54.8705 60.4366L59.959 65.5246L67.7654 57.7188L64.6992 54.6531L59.959 59.3933Z" fill="black"/>
<path d="M62.3133 8.6205L60.2695 10.6643L58.2258 8.6205L55.1596 11.6861L57.2033 13.7305L55.1596 15.7748L58.2258 18.8404L60.2695 16.7967L62.3133 18.8404L65.3795 15.7748L63.3357 13.7305L65.3795 11.6861L62.3133 8.6205Z" fill="black"/>
</svg>
