<svg width="320" height="63" viewBox="0 0 320 63" fill="none" xmlns="http://www.w3.org/2000/svg">
<path d="M74.8125 7.67916L68.0614 6.78438L69.8239 0.166551L61.9153 2.29898C59.3873 0.79198 56.5169 0 53.5512 0C44.4873 0 37.1129 7.42014 37.1129 16.5403V18.6859C25.8001 18.0668 15.3864 12.6665 8.27565 3.65494L6.43719 1.32494L4.75626 3.7721C4.09074 4.74039 3.52624 5.7845 3.07761 6.87397C1.68321 10.2613 1.43607 13.9208 2.36358 17.458C2.90866 19.5388 3.86129 21.5 5.13754 23.2138L2.53195 23.8432L3.04337 25.9877C4.40238 31.6815 8.55876 36.1106 13.8949 37.8841L11.3327 40.9027L12.9994 42.335C15.5182 44.4996 18.5867 45.8435 21.8498 46.2111C16.0074 51.3426 8.36469 54.4519 0 54.4519L0.941206 55.1101C8.32417 60.2714 16.9919 63 26.0079 63C37.7561 63 48.8006 58.3969 57.1077 50.0383C65.4147 41.6797 69.9895 30.5662 69.9895 18.7456V16.5403C69.9895 15.7621 69.9352 14.9833 69.8279 14.2154L74.8125 7.67916Z" fill="#EDBE12"/>
<path d="M105.727 52.341C101.334 51.1744 97.3033 47.8848 95.2409 43.7837C93.6604 40.6408 93.6624 40.6628 93.6587 26.2178C93.4714 13.7225 93.543 13.3193 94.388 12.1142C96.1828 9.16389 100.141 8.53385 102.736 10.7854C104.557 12.3662 104.702 12.903 104.702 18.0753V22.5608H112.356C117.038 22.5608 120.456 22.6551 121.159 22.8035C125.153 23.6479 126.669 28.3565 123.896 31.3037C123.569 31.651 122.896 32.151 122.4 32.4148C121.529 32.8778 121.206 32.8969 113.1 32.9624L104.702 33.0304V35.0308C104.702 37.9402 105.008 38.8921 106.378 40.2426C107.978 41.8195 108.405 41.8938 115.905 41.8997C121.724 41.9039 122.247 41.9371 123.189 42.3572C126.761 43.9511 127.651 48.1951 125.017 51.0751C123.477 52.7585 123.376 52.7753 114.847 52.7657C108.191 52.7583 107.109 52.7079 105.727 52.341ZM139.812 52.4364C136.344 51.608 132.764 49.0106 130.576 45.7345C128.56 42.7155 128.167 40.5913 128.157 32.657C128.148 25.8146 128.287 24.9529 129.623 23.5975C130.859 22.343 131.646 22.0178 133.465 22.0111C134.853 22.0057 135.204 22.0926 136.164 22.6778C136.847 23.0943 137.527 23.7644 137.95 24.4375C138.796 25.8824 138.641 26.4884 138.745 32.4319C138.855 39.1964 138.868 39.3565 139.386 40.1773C141.135 42.9498 144.751 43.3584 147.15 41.0544C148.534 39.7243 148.665 38.9428 148.665 31.9564C148.665 26.2117 148.691 25.825 149.141 24.9409C150.043 23.1699 151.35 22.2324 153.282 21.9713C155.35 21.6919 157.58 22.8935 158.648 24.8626C159.125 25.7402 159.153 26.1004 159.261 32.5782C159.222 37.967 159.479 39.5441 159.995 40.2987C161.645 42.7541 165.113 43.2822 167.278 41.408C168.831 40.0647 168.83 40.0693 168.957 32.5612C169.067 26.1165 169.097 25.7379 169.57 24.8626C171.553 21.1885 176.573 20.957 178.756 24.4388C180.168 26.3682 179.55 30.4512 179.55 33.0841C179.652 36.5488 179.446 40.9914 178.831 42.3607C177.159 47.0126 173.435 50.7075 168.955 52.1596C166.922 52.8183 162.444 52.9763 160.426 52.4606C158.481 51.9634 156.797 51.2018 155.195 50.0939L153.85 49.164L152.505 50.0938C150.879 51.2183 149.233 51.9799 147.434 52.4402C145.757 52.8693 141.616 52.8672 139.812 52.4364ZM186.635 52.4688C185.608 52.028 184.325 50.8376 183.765 49.805C183.275 48.9024 183.271 48.8027 183.271 37.4502C183.271 26.5258 183.291 25.9654 183.713 25.1261C185.469 21.6361 190.002 20.8506 192.751 23.5601C194.46 25.2452 194.455 25.2035 194.382 37.8093C194.319 48.6894 194.309 48.9115 193.83 49.7839C193.201 50.9319 192.057 52.0046 191 52.4394C189.977 52.8599 187.584 52.876 186.635 52.4688ZM210.293 52.3437C205.282 51.0486 200.919 47.1459 199.077 42.3102C198.082 39.7007 198.004 38.3713 198.079 25.4498C198.149 13.5316 198.158 13.3242 198.637 12.4494C201.025 8.08731 207.561 8.63951 208.978 13.3231C209.217 14.1133 209.31 15.549 209.31 18.4694V22.5199L214.664 22.6003C219.615 22.6747 220.087 22.7166 220.921 23.156C224.839 25.2213 224.857 30.3453 220.953 32.4017C220.077 32.8628 219.682 32.8983 214.646 32.9674L209.273 33.0413L209.348 35.6346C209.435 38.6611 209.785 39.5681 211.308 40.7192C212.642 41.7273 213.482 41.8919 217.313 41.8957C220.387 41.8986 220.799 41.9467 221.835 42.4223C226.165 44.4098 226.16 50.428 221.827 52.3682C220.488 52.9679 212.645 52.9513 210.293 52.3437ZM238.995 52.3544C233.318 50.8237 228.657 46.1225 227.187 40.4443C226.825 39.0484 226.785 37.6394 226.784 26.2277C226.87 14.3824 226.273 14.8456 227.399 12.4077C228.695 9.98527 231.369 8.91786 234.2 9.69284C235.381 10.0159 237.367 11.9737 237.695 13.1373C237.831 13.6216 237.94 15.8955 237.94 18.283L237.942 22.561H242.533C247.791 22.561 249.187 22.7529 250.454 23.6502C253.197 25.5929 253.26 29.9462 250.572 31.8653C249.231 32.8228 247.963 33.0057 242.665 33.0057H237.942V35.0185C237.942 37.6695 238.251 38.7841 239.315 39.976C240.766 41.6011 241.304 41.756 245.964 41.8893C250.02 42.0054 250.046 42.0095 251.149 42.6807C252.412 43.4493 253.58 45.1482 253.807 46.5459C254.135 48.5689 253.06 50.847 251.206 52.0576L250.263 52.673L245.399 52.7211C241.246 52.7623 240.309 52.7086 238.995 52.3544ZM267.137 52.4549C263.841 51.5777 261.413 50.1358 259.036 47.6449C256.148 44.6193 254.846 41.2844 254.854 36.9358C254.859 34.2794 255.321 32.2028 256.394 30.0056C257.528 27.6848 258.772 26.1714 260.604 24.8828C265.938 21.1307 275.42 20.8962 281.392 24.3687C283.53 25.6117 285.753 27.9641 286.836 30.1296C289.026 34.5085 288.806 38.4746 286.3 39.7641C285.433 40.2102 285.029 40.2306 275.873 40.2907L266.348 40.3531V40.9362C266.348 41.8451 267.816 43.0769 269.432 43.5238C270.533 43.8284 271.863 43.8952 276.846 43.8962C280.218 43.8962 283.281 43.9967 283.734 44.1207C287.615 45.1833 288.393 50.25 284.978 52.2226C283.872 52.9597 283.204 52.7744 276.135 52.7695C270.275 52.7587 267.977 52.6783 267.137 52.4549ZM277.049 32.7279C276.624 31.3257 275.407 30.4957 273.182 30.0902C270.815 29.6589 267.506 30.624 266.868 31.9317C266.587 32.5075 266.318 33.163 266.318 33.163C266.318 33.163 268.288 33.2279 271.781 33.2279H277.2L277.049 32.7279ZM294.062 52.3563C292.9 51.734 291.663 50.2888 291.368 49.21C291.196 48.5793 291.14 46.112 291.197 41.586C291.28 34.9937 291.29 34.8676 291.898 33.0691C293.499 28.3319 297.779 24.4028 302.758 23.1004C304.588 22.6216 313.037 22.3922 314.881 22.7712C317.44 23.2976 319.103 25.2444 319.103 27.7143C319.103 29.8207 318.132 31.4508 316.313 32.3983C315.457 32.8444 314.965 32.8919 310.085 32.9997C305.025 33.1115 304.749 33.1402 303.937 33.6379C302.865 34.2947 302.084 35.3075 301.767 36.4502C301.618 36.9864 301.52 39.6365 301.519 43.1291C301.518 48.9175 301.518 48.9192 300.932 50.0783C300.536 50.8611 300.005 51.47 299.297 51.9531C298.377 52.5814 298.043 52.6759 296.558 52.7282C295.229 52.7751 294.695 52.6954 294.062 52.3563ZM186.358 18.6518C182.779 16.8938 182.129 12.2507 185.101 9.67833C186.259 8.67624 187.19 8.33823 188.794 8.33823C191.037 8.33823 192.779 9.37111 193.786 11.298C196.195 15.9053 191.079 20.9705 186.358 18.6518Z" fill="#EDBE12"/>
</svg>
